<?xml version="1.0" encoding="iso-8859-1"?>
<!-- Generator: Adobe Illustrator 19.0.0, SVG Export Plug-In . SVG Version: 6.00 Build 0)  -->
<svg version="1.1" id="Capa_1" xmlns="http://www.w3.org/2000/svg" xmlns:xlink="http://www.w3.org/1999/xlink" x="0px" y="0px"
	 viewBox="0 0 52 52" style="enable-background:new 0 0 52 52;" xml:space="preserve">
<g>
	<g>
		<path d="M46,0H6C2.691,0,0,2.691,0,6v40c0,3.309,2.691,6,6,6h40c3.309,0,6-2.691,6-6V6C52,2.691,49.309,0,46,0z M50,46
			c0,2.206-1.794,4-4,4H6c-2.206,0-4-1.794-4-4V6c0-2.206,1.794-4,4-4h40c2.206,0,4,1.794,4,4V46z"/>
		<path d="M34.443,25.032l-14-6.928c-0.309-0.154-0.676-0.136-0.971,0.047C19.179,18.333,19,18.654,19,19v13.856
			c0,0.346,0.179,0.667,0.473,0.85c0.161,0.1,0.344,0.15,0.527,0.15c0.151,0,0.304-0.034,0.443-0.104l14-6.928
			C34.784,26.656,35,26.309,35,25.928S34.784,25.201,34.443,25.032z M21,31.246V20.611l10.745,5.317L21,31.246z"/>
	</g>
</g>
<g>
</g>
<g>
</g>
<g>
</g>
<g>
</g>
<g>
</g>
<g>
</g>
<g>
</g>
<g>
</g>
<g>
</g>
<g>
</g>
<g>
</g>
<g>
</g>
<g>
</g>
<g>
</g>
<g>
</g>
</svg>
